<?xml version="1.0" encoding="UTF-8" standalone="no"?>
<!-- Created with Inkscape (http://www.inkscape.org/) -->
<svg
   xmlns:dc="http://purl.org/dc/elements/1.1/"
   xmlns:cc="http://web.resource.org/cc/"
   xmlns:rdf="http://www.w3.org/1999/02/22-rdf-syntax-ns#"
   xmlns:svg="http://www.w3.org/2000/svg"
   xmlns="http://www.w3.org/2000/svg"
   xmlns:xlink="http://www.w3.org/1999/xlink"
   xmlns:sodipodi="http://inkscape.sourceforge.net/DTD/sodipodi-0.dtd"
   xmlns:inkscape="http://www.inkscape.org/namespaces/inkscape"
   sodipodi:docname="button-recenter.svg"
   sodipodi:docbase="/home/ncherel"
   inkscape:version="0.42"
   sodipodi:version="0.32"
   id="svg2"
   height="1052.3622px"
   width="744.09449px">
  <defs
     id="defs3">
    <linearGradient
       inkscape:collect="always"
       xlink:href="#linearGradient3620"
       id="linearGradient9268"
       gradientUnits="userSpaceOnUse"
       gradientTransform="translate(56.58387,-111.5658)"
       x1="374.89661"
       y1="401.83249"
       x2="260.74936"
       y2="193.23824" />
    <radialGradient
       inkscape:collect="always"
       xlink:href="#linearGradient2846"
       id="radialGradient9266"
       gradientUnits="userSpaceOnUse"
       gradientTransform="matrix(1.004228,0.000000,0.000000,0.995790,56.58377,-111.0708)"
       cx="379.41150"
       cy="385.29401"
       fx="380.73401"
       fy="385.29398"
       r="224.89404" />
    <linearGradient
       id="linearGradient10625">
      <stop
         id="stop10627"
         offset="0.0000000"
         style="stop-color:#5da271;stop-opacity:0.030612245;" />
      <stop
         id="stop10629"
         offset="1.0000000"
         style="stop-color:#8fff91;stop-opacity:1.0000000;" />
    </linearGradient>
    <linearGradient
       id="linearGradient17995">
      <stop
         id="stop17997"
         offset="0.0000000"
         style="stop-color:#742300;stop-opacity:1.0000000;" />
      <stop
         id="stop20279"
         offset="0.43750000"
         style="stop-color:#3a2300;stop-opacity:0.0000000;" />
      <stop
         id="stop17999"
         offset="1.0000000"
         style="stop-color:#002300;stop-opacity:0.0000000;" />
    </linearGradient>
    <linearGradient
       id="linearGradient3620">
      <stop
         id="stop3622"
         offset="0.0000000"
         style="stop-color:#000000;stop-opacity:0.43137255;" />
      <stop
         id="stop3624"
         offset="1.0000000"
         style="stop-color:#0cff00;stop-opacity:0.0000000;" />
    </linearGradient>
    <linearGradient
       id="linearGradient2846">
      <stop
         id="stop2848"
         offset="0.0000000"
         style="stop-color:#00ff21;stop-opacity:0.0000000;" />
      <stop
         id="stop2850"
         offset="1.0000000"
         style="stop-color:#d3ffd6;stop-opacity:0.45490196;" />
    </linearGradient>
    <linearGradient
       id="linearGradient2052">
      <stop
         id="stop2054"
         offset="0.0000000"
         style="stop-color:#0aac00;stop-opacity:0.64285713;" />
      <stop
         id="stop2056"
         offset="1.0000000"
         style="stop-color:#41ec49;stop-opacity:0.46938777;" />
    </linearGradient>
    <linearGradient
       gradientUnits="userSpaceOnUse"
       y2="193.23824"
       x2="260.74936"
       y1="395.77158"
       x1="260.74936"
       id="linearGradient2062"
       xlink:href="#linearGradient2052"
       inkscape:collect="always" />
    <radialGradient
       gradientTransform="scale(1.004228,0.995790)"
       gradientUnits="userSpaceOnUse"
       r="224.89404"
       fy="385.29398"
       fx="380.73401"
       cy="385.29401"
       cx="379.41150"
       id="radialGradient2844"
       xlink:href="#linearGradient2846"
       inkscape:collect="always" />
    <linearGradient
       gradientTransform="translate(-0.357128,-0.316388)"
       y2="193.23824"
       x2="260.74936"
       y1="395.77158"
       x1="260.74936"
       gradientUnits="userSpaceOnUse"
       id="linearGradient2860"
       xlink:href="#linearGradient3620"
       inkscape:collect="always" />
    <linearGradient
       y2="83.869720"
       x2="946.42456"
       y1="83.869720"
       x1="928.35437"
       gradientTransform="matrix(9.882358e-2,0.000000,0.000000,3.137573,202.9889,73.50062)"
       gradientUnits="userSpaceOnUse"
       id="linearGradient19519"
       xlink:href="#linearGradient17995"
       inkscape:collect="always" />
    <radialGradient
       gradientUnits="userSpaceOnUse"
       r="43.462700"
       fy="95.819290"
       fx="1155.9417"
       cy="95.926033"
       cx="1155.9417"
       gradientTransform="scale(0.264135,3.785942)"
       id="radialGradient20299"
       xlink:href="#linearGradient2846"
       inkscape:collect="always" />
    <radialGradient
       r="32.651035"
       fy="-95.746704"
       fx="1154.1908"
       cy="-95.746704"
       cx="1154.1908"
       gradientTransform="scale(0.264135,3.785942)"
       gradientUnits="userSpaceOnUse"
       id="radialGradient20303"
       xlink:href="#linearGradient2846"
       inkscape:collect="always" />
    <radialGradient
       r="32.651035"
       fy="-95.746704"
       fx="1154.1908"
       cy="-95.746704"
       cx="1154.1908"
       gradientTransform="scale(0.264135,3.785942)"
       gradientUnits="userSpaceOnUse"
       id="radialGradient21068"
       xlink:href="#linearGradient2846"
       inkscape:collect="always" />
    <radialGradient
       r="43.462700"
       fy="95.819290"
       fx="1155.9417"
       cy="95.926033"
       cx="1155.9417"
       gradientTransform="scale(0.264135,3.785942)"
       gradientUnits="userSpaceOnUse"
       id="radialGradient21071"
       xlink:href="#linearGradient2846"
       inkscape:collect="always" />
    <radialGradient
       r="43.462700"
       fy="95.819290"
       fx="1155.9417"
       cy="95.926033"
       cx="1155.9417"
       gradientTransform="matrix(0.264135,0.000000,0.000000,1.826937,1.428571e-5,443.3253)"
       gradientUnits="userSpaceOnUse"
       id="radialGradient21864"
       xlink:href="#linearGradient2846"
       inkscape:collect="always" />
    <radialGradient
       r="38.983208"
       fy="-95.746704"
       fx="1154.1908"
       cy="-95.746704"
       cx="1154.1908"
       gradientTransform="matrix(0.264135,0.000000,0.000000,3.785942,255.4668,-1.428571e-5)"
       gradientUnits="userSpaceOnUse"
       id="radialGradient21866"
       xlink:href="#linearGradient2846"
       inkscape:collect="always" />
    <radialGradient
       r="43.462700"
       fy="95.819290"
       fx="1155.9417"
       cy="95.926033"
       cx="1155.9417"
       gradientTransform="matrix(0.264135,0.000000,0.000000,1.826937,1.428571e-5,379.3967)"
       gradientUnits="userSpaceOnUse"
       id="radialGradient21868"
       xlink:href="#linearGradient2846"
       inkscape:collect="always" />
    <linearGradient
       y2="83.869720"
       x2="946.42456"
       y1="83.869720"
       x1="928.35437"
       gradientTransform="matrix(0.158116,0.000000,0.000000,3.142514,147.7656,-855.6764)"
       gradientUnits="userSpaceOnUse"
       id="linearGradient21870"
       xlink:href="#linearGradient17995"
       inkscape:collect="always" />
    <linearGradient
       y2="83.869720"
       x2="946.42456"
       y1="83.869720"
       x1="928.35437"
       gradientTransform="matrix(0.158116,0.000000,0.000000,3.172160,147.8549,-787.0914)"
       gradientUnits="userSpaceOnUse"
       id="linearGradient21872"
       xlink:href="#linearGradient17995"
       inkscape:collect="always" />
    <radialGradient
       r="224.89404"
       fy="385.29398"
       fx="380.73401"
       cy="385.29401"
       cx="379.41150"
       gradientTransform="matrix(1.004228,0.000000,0.000000,0.995790,1.428571e-5,255.4668)"
       gradientUnits="userSpaceOnUse"
       id="radialGradient21874"
       xlink:href="#linearGradient2846"
       inkscape:collect="always" />
    <linearGradient
       y2="193.23824"
       x2="260.74936"
       y1="395.77158"
       x1="260.74936"
       gradientTransform="translate(1.428571e-5,254.9719)"
       gradientUnits="userSpaceOnUse"
       id="linearGradient21876"
       xlink:href="#linearGradient3620"
       inkscape:collect="always" />
    <linearGradient
       gradientTransform="translate(1.428571e-5,255.4668)"
       y2="193.23824"
       x2="260.74936"
       y1="395.77158"
       x1="260.74936"
       gradientUnits="userSpaceOnUse"
       id="linearGradient21878"
       xlink:href="#linearGradient2052"
       inkscape:collect="always" />
    <radialGradient
       r="43.462700"
       fy="95.819290"
       fx="1155.9417"
       cy="95.926033"
       cx="1155.9417"
       gradientTransform="matrix(0.264135,0.000000,0.000000,1.826937,2.857142e-5,686.1825)"
       gradientUnits="userSpaceOnUse"
       id="radialGradient21898"
       xlink:href="#linearGradient2846"
       inkscape:collect="always" />
    <radialGradient
       r="38.983208"
       fy="-95.746704"
       fx="1154.1908"
       cy="-95.746704"
       cx="1154.1908"
       gradientTransform="matrix(0.264135,0.000000,0.000000,3.785942,498.3240,-2.857142e-5)"
       gradientUnits="userSpaceOnUse"
       id="radialGradient21900"
       xlink:href="#linearGradient2846"
       inkscape:collect="always" />
    <radialGradient
       r="43.462700"
       fy="95.819290"
       fx="1155.9417"
       cy="95.926033"
       cx="1155.9417"
       gradientTransform="matrix(0.264135,0.000000,0.000000,1.826937,2.857142e-5,622.2539)"
       gradientUnits="userSpaceOnUse"
       id="radialGradient21902"
       xlink:href="#linearGradient2846"
       inkscape:collect="always" />
    <linearGradient
       y2="83.869720"
       x2="946.42456"
       y1="83.869720"
       x1="928.35437"
       gradientTransform="matrix(0.158116,0.000000,0.000000,3.142514,147.7656,-1098.534)"
       gradientUnits="userSpaceOnUse"
       id="linearGradient21904"
       xlink:href="#linearGradient17995"
       inkscape:collect="always" />
    <linearGradient
       y2="83.869720"
       x2="946.42456"
       y1="83.869720"
       x1="928.35437"
       gradientTransform="matrix(0.158116,0.000000,0.000000,3.172160,147.8549,-1029.949)"
       gradientUnits="userSpaceOnUse"
       id="linearGradient21906"
       xlink:href="#linearGradient17995"
       inkscape:collect="always" />
    <radialGradient
       r="224.89404"
       fy="385.29398"
       fx="380.73401"
       cy="385.29401"
       cx="379.41150"
       gradientTransform="matrix(1.004228,0.000000,0.000000,0.995790,2.857142e-5,498.3240)"
       gradientUnits="userSpaceOnUse"
       id="radialGradient21908"
       xlink:href="#linearGradient2846"
       inkscape:collect="always" />
    <linearGradient
       y2="193.23824"
       x2="260.74936"
       y1="395.77158"
       x1="260.74936"
       gradientTransform="translate(2.857142e-5,497.8290)"
       gradientUnits="userSpaceOnUse"
       id="linearGradient21910"
       xlink:href="#linearGradient3620"
       inkscape:collect="always" />
    <linearGradient
       gradientTransform="translate(2.857142e-5,498.3240)"
       y2="193.23824"
       x2="260.74936"
       y1="395.77158"
       x1="260.74936"
       gradientUnits="userSpaceOnUse"
       id="linearGradient21912"
       xlink:href="#linearGradient2052"
       inkscape:collect="always" />
    <radialGradient
       gradientUnits="userSpaceOnUse"
       r="67.021263"
       fy="297.20343"
       fx="282.48087"
       cy="297.20343"
       cx="282.48087"
       gradientTransform="matrix(0.716721,0.000000,0.000000,0.683691,73.41372,74.96208)"
       id="radialGradient10633"
       xlink:href="#linearGradient10625"
       inkscape:collect="always" />
    <radialGradient
       r="90.069031"
       fy="292.89691"
       fx="276.65030"
       cy="292.89691"
       cx="276.65030"
       gradientTransform="scale(1.023871,0.976686)"
       gradientUnits="userSpaceOnUse"
       id="radialGradient10652"
       xlink:href="#linearGradient10625"
       inkscape:collect="always" />
    <radialGradient
       r="55.603874"
       fy="283.95453"
       fx="-333.92969"
       cy="283.95459"
       cx="-333.14746"
       gradientTransform="scale(-1.023871,0.976686)"
       gradientUnits="userSpaceOnUse"
       id="radialGradient10656"
       xlink:href="#linearGradient10625"
       inkscape:collect="always" />
    <radialGradient
       r="90.069099"
       fy="-359.26071"
       fx="268.35837"
       cy="-359.67355"
       cx="268.35843"
       gradientTransform="scale(1.023871,-0.976686)"
       gradientUnits="userSpaceOnUse"
       id="radialGradient10666"
       xlink:href="#linearGradient10625"
       inkscape:collect="always" />
    <radialGradient
       r="90.069145"
       fy="-367.74042"
       fx="-347.10626"
       cy="-367.74042"
       cx="-347.10626"
       gradientTransform="scale(-1.023871,-0.976686)"
       gradientUnits="userSpaceOnUse"
       id="radialGradient10670"
       xlink:href="#linearGradient10625"
       inkscape:collect="always" />
    <radialGradient
       r="90.069145"
       fy="-367.74042"
       fx="-347.10626"
       cy="-367.74042"
       cx="-347.10626"
       gradientTransform="matrix(-1.023871,0.000000,0.000000,-0.976686,48.24947,-137.1777)"
       gradientUnits="userSpaceOnUse"
       id="radialGradient11599"
       xlink:href="#linearGradient10625"
       inkscape:collect="always" />
    <radialGradient
       r="90.069099"
       fy="-359.26071"
       fx="268.35837"
       cy="-359.67355"
       cx="268.35843"
       gradientTransform="matrix(1.023871,0.000000,0.000000,-0.976686,48.24947,-137.1777)"
       gradientUnits="userSpaceOnUse"
       id="radialGradient11601"
       xlink:href="#linearGradient10625"
       inkscape:collect="always" />
    <radialGradient
       r="55.603874"
       fy="283.95453"
       fx="-333.92969"
       cy="283.95459"
       cx="-333.14746"
       gradientTransform="matrix(-1.023871,0.000000,0.000000,0.976686,48.24947,-137.1777)"
       gradientUnits="userSpaceOnUse"
       id="radialGradient11603"
       xlink:href="#linearGradient10625"
       inkscape:collect="always" />
    <radialGradient
       r="90.069031"
       fy="292.89691"
       fx="276.65030"
       cy="292.89691"
       cx="276.65030"
       gradientTransform="matrix(1.023871,0.000000,0.000000,0.976686,48.24947,-137.1777)"
       gradientUnits="userSpaceOnUse"
       id="radialGradient11605"
       xlink:href="#linearGradient10625"
       inkscape:collect="always" />
    <linearGradient
       inkscape:collect="always"
       xlink:href="#linearGradient2052"
       id="linearGradient11639"
       gradientUnits="userSpaceOnUse"
       gradientTransform="translate(56.58377,-111.0708)"
       x1="260.74936"
       y1="395.77158"
       x2="260.74936"
       y2="193.23824" />
    <linearGradient
       inkscape:collect="always"
       xlink:href="#linearGradient2052"
       id="linearGradient11675"
       gradientUnits="userSpaceOnUse"
       gradientTransform="translate(138.9112,228.3405)"
       x1="260.74936"
       y1="395.77158"
       x2="260.74936"
       y2="193.23824" />
    <linearGradient
       inkscape:collect="always"
       xlink:href="#linearGradient3620"
       id="linearGradient11677"
       gradientUnits="userSpaceOnUse"
       gradientTransform="translate(138.9113,227.8455)"
       x1="374.89661"
       y1="401.83249"
       x2="260.74936"
       y2="193.23824" />
    <radialGradient
       inkscape:collect="always"
       xlink:href="#linearGradient2846"
       id="radialGradient11679"
       gradientUnits="userSpaceOnUse"
       gradientTransform="matrix(1.004228,0.000000,0.000000,0.995790,138.9112,228.3405)"
       cx="379.41150"
       cy="385.29401"
       fx="380.73401"
       fy="385.29398"
       r="224.89404" />
    <radialGradient
       inkscape:collect="always"
       xlink:href="#linearGradient10625"
       id="radialGradient11681"
       gradientUnits="userSpaceOnUse"
       gradientTransform="matrix(1.023871,0.000000,0.000000,0.976686,130.5769,202.2336)"
       cx="276.65030"
       cy="292.89691"
       fx="276.65030"
       fy="292.89691"
       r="90.069031" />
    <radialGradient
       inkscape:collect="always"
       xlink:href="#linearGradient10625"
       id="radialGradient11683"
       gradientUnits="userSpaceOnUse"
       gradientTransform="matrix(-1.023871,0.000000,0.000000,0.976686,130.5769,202.2336)"
       cx="-333.14746"
       cy="283.95459"
       fx="-333.92969"
       fy="283.95453"
       r="55.603874" />
    <radialGradient
       inkscape:collect="always"
       xlink:href="#linearGradient10625"
       id="radialGradient11685"
       gradientUnits="userSpaceOnUse"
       gradientTransform="matrix(1.023871,0.000000,0.000000,-0.976686,130.5769,202.2336)"
       cx="268.35843"
       cy="-359.67355"
       fx="268.35837"
       fy="-359.26071"
       r="90.069099" />
    <radialGradient
       inkscape:collect="always"
       xlink:href="#linearGradient10625"
       id="radialGradient11687"
       gradientUnits="userSpaceOnUse"
       gradientTransform="matrix(-1.023871,0.000000,0.000000,-0.976686,130.5769,202.2336)"
       cx="-347.10626"
       cy="-367.74042"
       fx="-347.10626"
       fy="-367.74042"
       r="90.069145" />
    <linearGradient
       inkscape:collect="always"
       xlink:href="#linearGradient2052"
       id="linearGradient13896"
       gradientUnits="userSpaceOnUse"
       gradientTransform="translate(47.99747,327.8406)"
       x1="260.74936"
       y1="395.77158"
       x2="260.74936"
       y2="193.23824" />
    <linearGradient
       inkscape:collect="always"
       xlink:href="#linearGradient3620"
       id="linearGradient13898"
       gradientUnits="userSpaceOnUse"
       gradientTransform="translate(47.99757,327.3456)"
       x1="374.89661"
       y1="401.83249"
       x2="260.74936"
       y2="193.23824" />
    <radialGradient
       inkscape:collect="always"
       xlink:href="#linearGradient2846"
       id="radialGradient13900"
       gradientUnits="userSpaceOnUse"
       gradientTransform="matrix(1.004228,0.000000,0.000000,0.995790,47.99747,327.8406)"
       cx="379.41150"
       cy="385.29401"
       fx="380.73401"
       fy="385.29398"
       r="224.89404" />
    <radialGradient
       inkscape:collect="always"
       xlink:href="#linearGradient10625"
       id="radialGradient13902"
       gradientUnits="userSpaceOnUse"
       gradientTransform="matrix(1.023871,0.000000,0.000000,0.976686,39.66317,301.7337)"
       cx="276.65030"
       cy="292.89691"
       fx="276.65030"
       fy="292.89691"
       r="90.069031" />
    <radialGradient
       inkscape:collect="always"
       xlink:href="#linearGradient10625"
       id="radialGradient13904"
       gradientUnits="userSpaceOnUse"
       gradientTransform="matrix(-1.023871,0.000000,0.000000,0.976686,39.66317,301.7337)"
       cx="-333.14746"
       cy="283.95459"
       fx="-333.92969"
       fy="283.95453"
       r="55.603874" />
    <radialGradient
       inkscape:collect="always"
       xlink:href="#linearGradient10625"
       id="radialGradient13906"
       gradientUnits="userSpaceOnUse"
       gradientTransform="matrix(1.023871,0.000000,0.000000,-0.976686,39.66317,301.7337)"
       cx="268.35843"
       cy="-359.67355"
       fx="268.35837"
       fy="-359.26071"
       r="90.069099" />
    <radialGradient
       inkscape:collect="always"
       xlink:href="#linearGradient10625"
       id="radialGradient13908"
       gradientUnits="userSpaceOnUse"
       gradientTransform="matrix(-1.023871,0.000000,0.000000,-0.976686,39.66317,301.7337)"
       cx="-347.10626"
       cy="-367.74042"
       fx="-347.10626"
       fy="-367.74042"
       r="90.069145" />
    <radialGradient
       inkscape:collect="always"
       xlink:href="#linearGradient10625"
       id="radialGradient13946"
       gradientUnits="userSpaceOnUse"
       gradientTransform="matrix(-1.023871,0.000000,0.000000,-0.976686,41.68347,85.05590)"
       cx="-347.10626"
       cy="-367.74042"
       fx="-347.10626"
       fy="-367.74042"
       r="90.069145" />
    <radialGradient
       inkscape:collect="always"
       xlink:href="#linearGradient10625"
       id="radialGradient13948"
       gradientUnits="userSpaceOnUse"
       gradientTransform="matrix(1.023871,0.000000,0.000000,-0.976686,41.68347,85.05590)"
       cx="268.35843"
       cy="-359.67355"
       fx="268.35837"
       fy="-359.26071"
       r="90.069099" />
    <radialGradient
       inkscape:collect="always"
       xlink:href="#linearGradient10625"
       id="radialGradient13950"
       gradientUnits="userSpaceOnUse"
       gradientTransform="matrix(-1.023871,0.000000,0.000000,0.976686,41.68347,85.05590)"
       cx="-333.14746"
       cy="283.95459"
       fx="-333.92969"
       fy="283.95453"
       r="55.603874" />
    <radialGradient
       inkscape:collect="always"
       xlink:href="#linearGradient10625"
       id="radialGradient13952"
       gradientUnits="userSpaceOnUse"
       gradientTransform="matrix(1.023871,0.000000,0.000000,0.976686,41.68347,85.05590)"
       cx="276.65030"
       cy="292.89691"
       fx="276.65030"
       fy="292.89691"
       r="90.069031" />
    <radialGradient
       inkscape:collect="always"
       xlink:href="#linearGradient2846"
       id="radialGradient13954"
       gradientUnits="userSpaceOnUse"
       gradientTransform="matrix(1.004228,0.000000,0.000000,0.995790,50.01777,111.1628)"
       cx="379.41150"
       cy="385.29401"
       fx="380.73401"
       fy="385.29398"
       r="224.89404" />
    <linearGradient
       inkscape:collect="always"
       xlink:href="#linearGradient3620"
       id="linearGradient13956"
       gradientUnits="userSpaceOnUse"
       gradientTransform="translate(50.01787,110.6678)"
       x1="374.89661"
       y1="401.83249"
       x2="260.74936"
       y2="193.23824" />
    <linearGradient
       inkscape:collect="always"
       xlink:href="#linearGradient2052"
       id="linearGradient13958"
       gradientUnits="userSpaceOnUse"
       gradientTransform="translate(50.01777,111.1628)"
       x1="260.74936"
       y1="395.77158"
       x2="260.74936"
       y2="193.23824" />
    <linearGradient
       inkscape:collect="always"
       xlink:href="#linearGradient2052"
       id="linearGradient13982"
       gradientUnits="userSpaceOnUse"
       gradientTransform="translate(48.50253,559.6705)"
       x1="260.74936"
       y1="395.77158"
       x2="260.74936"
       y2="193.23824" />
    <linearGradient
       inkscape:collect="always"
       xlink:href="#linearGradient3620"
       id="linearGradient13984"
       gradientUnits="userSpaceOnUse"
       gradientTransform="translate(48.50263,559.1755)"
       x1="374.89661"
       y1="401.83249"
       x2="260.74936"
       y2="193.23824" />
    <radialGradient
       inkscape:collect="always"
       xlink:href="#linearGradient2846"
       id="radialGradient13986"
       gradientUnits="userSpaceOnUse"
       gradientTransform="matrix(1.004228,0.000000,0.000000,0.995790,48.50253,559.6705)"
       cx="379.41150"
       cy="385.29401"
       fx="380.73401"
       fy="385.29398"
       r="224.89404" />
    <radialGradient
       inkscape:collect="always"
       xlink:href="#linearGradient10625"
       id="radialGradient13988"
       gradientUnits="userSpaceOnUse"
       gradientTransform="matrix(1.023871,0.000000,0.000000,0.976686,40.16823,533.5636)"
       cx="276.65030"
       cy="292.89691"
       fx="276.65030"
       fy="292.89691"
       r="90.069031" />
    <radialGradient
       inkscape:collect="always"
       xlink:href="#linearGradient10625"
       id="radialGradient13990"
       gradientUnits="userSpaceOnUse"
       gradientTransform="matrix(-1.023871,0.000000,0.000000,0.976686,40.16823,533.5636)"
       cx="-333.14746"
       cy="283.95459"
       fx="-333.92969"
       fy="283.95453"
       r="55.603874" />
    <radialGradient
       inkscape:collect="always"
       xlink:href="#linearGradient10625"
       id="radialGradient13992"
       gradientUnits="userSpaceOnUse"
       gradientTransform="matrix(1.023871,0.000000,0.000000,-0.976686,40.16823,533.5636)"
       cx="268.35843"
       cy="-359.67355"
       fx="268.35837"
       fy="-359.26071"
       r="90.069099" />
    <radialGradient
       inkscape:collect="always"
       xlink:href="#linearGradient10625"
       id="radialGradient13994"
       gradientUnits="userSpaceOnUse"
       gradientTransform="matrix(-1.023871,0.000000,0.000000,-0.976686,40.16823,533.5636)"
       cx="-347.10626"
       cy="-367.74042"
       fx="-347.10626"
       fy="-367.74042"
       r="90.069145" />
  </defs>
  <sodipodi:namedview
     inkscape:guide-bbox="true"
     showguides="true"
     inkscape:window-y="25"
     inkscape:window-x="0"
     inkscape:window-height="825"
     inkscape:window-width="1440"
     inkscape:current-layer="layer1"
     inkscape:document-units="px"
     inkscape:cy="537.55398"
     inkscape:cx="386.46704"
     inkscape:zoom="0.49497474"
     inkscape:pageshadow="2"
     inkscape:pageopacity="0.0"
     borderopacity="1.0"
     bordercolor="#666666"
     pagecolor="#ffffff"
     id="base" />
  <metadata
     id="metadata4">
    <rdf:RDF>
      <cc:Work
         rdf:about="">
        <dc:format>image/svg+xml</dc:format>
        <dc:type
           rdf:resource="http://purl.org/dc/dcmitype/StillImage" />
        <cc:license
           rdf:resource="http://creativecommons.org/licenses/LGPL/2.1/" />
      </cc:Work>
      <cc:License
         rdf:about="http://creativecommons.org/licenses/LGPL/2.1/">
        <cc:permits
           rdf:resource="http://web.resource.org/cc/Reproduction" />
        <cc:permits
           rdf:resource="http://web.resource.org/cc/Distribution" />
        <cc:requires
           rdf:resource="http://web.resource.org/cc/Notice" />
        <cc:permits
           rdf:resource="http://web.resource.org/cc/DerivativeWorks" />
        <cc:requires
           rdf:resource="http://web.resource.org/cc/ShareAlike" />
        <cc:requires
           rdf:resource="http://web.resource.org/cc/SourceCode" />
      </cc:License>
    </rdf:RDF>
  </metadata>
  <g
     style="display:inline"
     id="layer1"
     inkscape:groupmode="layer"
     inkscape:label="Layer 1">
    <rect
       inkscape:export-ydpi="14.263278"
       inkscape:export-xdpi="14.263278"
       inkscape:export-filename="/home/ncherel/button-recenter-normal.png"
       style="opacity:1.0000000;fill:url(#linearGradient11639);fill-opacity:1.0000000;fill-rule:evenodd;stroke:#f7f7f7;stroke-width:1.5599999;stroke-linecap:round;stroke-linejoin:round;stroke-miterlimit:4.0000000;stroke-dashoffset:0.0000000;stroke-opacity:1.0000000;display:inline"
       id="rect10139"
       rx="35.000000"
       ry="35.000000"
       x="247.49246"
       y="67.716026"
       width="200.00000"
       height="200.00000" />
    <rect
       inkscape:export-ydpi="14.263278"
       inkscape:export-xdpi="14.263278"
       inkscape:export-filename="/home/ncherel/button-recenter-normal.png"
       style="opacity:1.0000000;fill:url(#linearGradient9268);fill-opacity:1.0000000;fill-rule:evenodd;stroke:#035803;stroke-width:1.5599999;stroke-linecap:round;stroke-linejoin:round;stroke-miterlimit:4.0000000;stroke-dasharray:none;stroke-dashoffset:0.0000000;stroke-opacity:1.0000000;display:inline"
       id="rect10141"
       rx="35.000000"
       ry="35.000000"
       x="247.49252"
       y="67.221062"
       width="200.00000"
       height="200.00000" />
    <rect
       inkscape:export-ydpi="14.263278"
       inkscape:export-xdpi="14.263278"
       inkscape:export-filename="/home/ncherel/button-recenter-normal.png"
       style="opacity:1.0000000;fill:url(#radialGradient9266);fill-opacity:1.0000000;fill-rule:nonzero;stroke:none;stroke-width:1.5599999;stroke-linecap:round;stroke-linejoin:round;stroke-miterlimit:4.0000000;stroke-dashoffset:0.0000000;stroke-opacity:1.0000000;display:inline"
       id="rect10143"
       x="262.49246"
       y="82.716026"
       rx="30.000000"
       ry="30.000000"
       width="170.00000"
       height="170.00000" />
    <path
       inkscape:export-ydpi="14.263278"
       inkscape:export-xdpi="14.263278"
       inkscape:export-filename="/home/ncherel/button-recenter-normal.png"
       sodipodi:nodetypes="cccccccccc"
       id="path6805"
       d="M 267.93532,118.57530 C 276.90184,122.19802 290.55520,123.15350 305.97120,136.43167 C 298.13095,138.65268 300.43427,138.19902 290.44532,142.32462 C 303.37293,149.53481 318.53009,152.48601 338.76567,158.01829 L 338.96774,157.81622 C 334.44561,136.06541 330.48426,122.42348 323.27407,109.49586 C 322.17892,112.91882 320.61228,120.21195 317.88619,124.51667 C 303.09279,110.61590 302.64239,101.50823 299.52475,86.985873 L 286.29827,104.64644 L 267.93532,118.57530 z "
       style="fill:#30812c;fill-opacity:1.0000000;fill-rule:evenodd;stroke:#093b00;stroke-width:0.60962641px;stroke-linecap:butt;stroke-linejoin:miter;stroke-opacity:0.64497042" />
    <use
       inkscape:export-ydpi="14.263278"
       inkscape:export-xdpi="14.263278"
       inkscape:export-filename="/home/ncherel/button-recenter-normal.png"
       height="1052.3622"
       width="744.09448"
       transform="matrix(-1.000000,0.000000,0.000000,1.000000,690.4743,0.000000)"
       id="use7585"
       xlink:href="#path6805"
       y="0.0000000"
       x="0.0000000"
       style="fill-opacity:1.0000000" />
    <use
       inkscape:export-ydpi="14.263278"
       inkscape:export-xdpi="14.263278"
       inkscape:export-filename="/home/ncherel/button-recenter-normal.png"
       height="1052.3622"
       width="744.09448"
       transform="matrix(1.000000,0.000000,0.000000,-1.000000,0.714286,326.4327)"
       id="use7587"
       xlink:href="#path6805"
       y="0.0000000"
       x="0.0000000" />
    <use
       inkscape:export-ydpi="14.263278"
       inkscape:export-xdpi="14.263278"
       inkscape:export-filename="/home/ncherel/button-recenter-normal.png"
       height="1052.3622"
       width="744.09448"
       transform="matrix(-1.000000,0.000000,0.000000,1.000000,692.6172,1.428571)"
       id="use7589"
       xlink:href="#use7587"
       y="0.0000000"
       x="0.0000000" />
    <path
       inkscape:export-ydpi="14.263278"
       inkscape:export-xdpi="14.263278"
       inkscape:export-filename="/home/ncherel/button-recenter-normal.png"
       sodipodi:nodetypes="cccccccccc"
       id="path9865"
       d="M 278.23862,116.39147 C 283.46746,118.39726 305.35711,129.43175 313.46308,138.55126 C 308.89103,139.78097 310.23422,139.52979 304.40914,141.81400 C 311.94790,145.80607 320.78681,147.44006 332.58720,150.50312 L 332.70504,150.39124 C 330.06795,138.34849 327.75790,130.79535 323.55325,123.63773 C 322.91463,125.53292 322.00104,129.57090 320.41132,131.95429 C 311.78453,124.25787 298.47809,106.94195 296.66002,98.901373 L 288.94700,108.67948 L 278.23862,116.39147 z "
       style="fill:url(#radialGradient11605);fill-opacity:1.0000000;fill-rule:evenodd;stroke:none;stroke-width:0.49485123px;stroke-linecap:butt;stroke-linejoin:miter;stroke-opacity:0.64497042" />
    <path
       inkscape:export-ydpi="14.263278"
       inkscape:export-xdpi="14.263278"
       inkscape:export-filename="/home/ncherel/button-recenter-normal.png"
       sodipodi:nodetypes="cccccccccc"
       id="path10654"
       d="M 413.37867,114.91410 C 408.14983,116.91989 386.26018,127.95438 378.15421,137.07389 C 382.72626,138.30360 381.38307,138.05242 387.20815,140.33663 C 379.66939,144.32870 370.83048,145.96269 359.03009,149.02575 L 358.91225,148.91387 C 361.54934,136.87112 363.85939,129.31798 368.06404,122.16036 C 368.70266,124.05555 369.61625,128.09353 371.20597,130.47692 C 379.83276,122.78050 393.13920,105.46458 394.95727,97.424003 L 402.67029,107.20211 L 413.37867,114.91410 z "
       style="fill:url(#radialGradient11603);fill-opacity:1.0000000;fill-rule:evenodd;stroke:none;stroke-width:0.49485123px;stroke-linecap:butt;stroke-linejoin:miter;stroke-opacity:0.64497042;display:inline" />
    <path
       inkscape:export-ydpi="14.263278"
       inkscape:export-xdpi="14.263278"
       inkscape:export-filename="/home/ncherel/button-recenter-normal.png"
       sodipodi:nodetypes="cccccccccc"
       id="path10664"
       d="M 278.15909,209.92382 C 283.38793,207.91803 305.27758,196.88354 313.38355,187.76403 C 308.81150,186.53432 310.15469,186.78550 304.32961,184.50129 C 311.86837,180.50922 320.70728,178.87523 332.50767,175.81217 L 332.62551,175.92405 C 329.98842,187.96680 327.67837,195.51994 323.47372,202.67756 C 322.83510,200.78237 321.92151,196.74439 320.33179,194.36100 C 311.70500,202.05742 298.39856,219.37334 296.58049,227.41392 L 288.86747,217.63581 L 278.15909,209.92382 z "
       style="fill:url(#radialGradient11601);fill-opacity:1.0000000;fill-rule:evenodd;stroke:none;stroke-width:0.49485123px;stroke-linecap:butt;stroke-linejoin:miter;stroke-opacity:0.64497042;display:inline" />
    <path
       inkscape:export-ydpi="14.263278"
       inkscape:export-xdpi="14.263278"
       inkscape:export-filename="/home/ncherel/button-recenter-normal.png"
       sodipodi:nodetypes="cccccccccc"
       id="path10668"
       d="M 414.05407,211.35239 C 408.82523,209.34660 386.93558,198.31211 378.82961,189.19260 C 383.40166,187.96289 382.05847,188.21407 387.88355,185.92986 C 380.34479,181.93779 371.50588,180.30380 359.70549,177.24074 L 359.58765,177.35262 C 362.22474,189.39537 364.53479,196.94851 368.73944,204.10613 C 369.37806,202.21094 370.29165,198.17296 371.88137,195.78957 C 380.50816,203.48599 393.81460,220.80191 395.63267,228.84249 L 403.34569,219.06438 L 414.05407,211.35239 z "
       style="fill:url(#radialGradient11599);fill-opacity:1.0000000;fill-rule:evenodd;stroke:none;stroke-width:0.49485123px;stroke-linecap:butt;stroke-linejoin:miter;stroke-opacity:0.64497042;display:inline" />
    <rect
       inkscape:export-ydpi="14.263278"
       inkscape:export-xdpi="14.263278"
       inkscape:export-filename="/home/ncherel/button-recenter-up.png"
       style="opacity:1.0000000;fill:url(#linearGradient13958);fill-opacity:1.0000000;fill-rule:evenodd;stroke:#f7f7f7;stroke-width:1.5599999;stroke-linecap:round;stroke-linejoin:round;stroke-miterlimit:4.0000000;stroke-dashoffset:0.0000000;stroke-opacity:1.0000000;display:inline"
       id="rect11653"
       rx="35.000000"
       ry="35.000000"
       x="240.92645"
       y="289.94958"
       width="200.00000"
       height="200.00000" />
    <rect
       inkscape:export-ydpi="14.263278"
       inkscape:export-xdpi="14.263278"
       inkscape:export-filename="/home/ncherel/button-recenter-up.png"
       style="opacity:1.0000000;fill:url(#linearGradient13956);fill-opacity:1.0000000;fill-rule:evenodd;stroke:#035803;stroke-width:1.5599999;stroke-linecap:round;stroke-linejoin:round;stroke-miterlimit:4.0000000;stroke-dasharray:none;stroke-dashoffset:0.0000000;stroke-opacity:1.0000000;display:inline"
       id="rect11655"
       rx="35.000000"
       ry="35.000000"
       x="240.92651"
       y="289.45462"
       width="200.00000"
       height="200.00000" />
    <rect
       inkscape:export-ydpi="14.263278"
       inkscape:export-xdpi="14.263278"
       inkscape:export-filename="/home/ncherel/button-recenter-up.png"
       style="opacity:1.0000000;fill:url(#radialGradient13954);fill-opacity:1.0000000;fill-rule:nonzero;stroke:none;stroke-width:1.5599999;stroke-linecap:round;stroke-linejoin:round;stroke-miterlimit:4.0000000;stroke-dashoffset:0.0000000;stroke-opacity:1.0000000;display:inline"
       id="rect11657"
       x="255.92645"
       y="304.94958"
       rx="30.000000"
       ry="30.000000"
       width="170.00000"
       height="170.00000" />
    <path
       inkscape:export-ydpi="14.263278"
       inkscape:export-xdpi="14.263278"
       inkscape:export-filename="/home/ncherel/button-recenter-up.png"
       sodipodi:nodetypes="cccccccccc"
       id="path11659"
       d="M 261.36931,340.80886 C 270.33583,344.43158 283.98919,345.38706 299.40519,358.66523 C 291.56494,360.88624 293.86826,360.43258 283.87931,364.55818 C 296.80692,371.76837 311.96408,374.71957 332.19966,380.25185 L 332.40173,380.04978 C 327.87960,358.29897 323.91825,344.65704 316.70806,331.72942 C 315.61291,335.15238 314.04627,342.44551 311.32018,346.75023 C 296.52678,332.84946 296.07638,323.74179 292.95874,309.21943 L 279.73226,326.88000 L 261.36931,340.80886 z "
       style="fill:#b8f6b1;fill-opacity:1.0000000;fill-rule:evenodd;stroke:#093b00;stroke-width:0.60962641px;stroke-linecap:butt;stroke-linejoin:miter;stroke-opacity:0.64497042;display:inline" />
    <path
       style="fill:#b8f6b1;fill-opacity:1.0000000;fill-rule:evenodd;stroke:#093b00;stroke-width:0.60962641px;stroke-linecap:butt;stroke-linejoin:miter;stroke-opacity:0.64497042"
       d="M 415.97292,340.80890 C 407.00640,344.43162 393.35304,345.38710 377.93704,358.66527 C 385.77729,360.88628 383.47397,360.43262 393.46292,364.55822 C 380.53531,371.76841 365.37815,374.71961 345.14257,380.25189 L 344.94050,380.04982 C 349.46263,358.29901 353.42398,344.65708 360.63417,331.72946 C 361.72932,335.15242 363.29596,342.44555 366.02205,346.75027 C 380.81545,332.84950 381.26585,323.74183 384.38349,309.21947 L 397.60997,326.88004 L 415.97292,340.80890 z "
       id="use11661"
       sodipodi:nodetypes="cccccccccc"
       inkscape:export-filename="/home/ncherel/button-recenter-up.png"
       inkscape:export-xdpi="14.263278"
       inkscape:export-ydpi="14.263278" />
    <path
       style="fill:#b8f6b1;fill-opacity:1.0000000;fill-rule:evenodd;stroke:#093b00;stroke-width:0.60962641px;stroke-linecap:butt;stroke-linejoin:miter;stroke-opacity:0.64497042"
       d="M 262.08360,430.09100 C 271.05012,426.46828 284.70348,425.51280 300.11948,412.23463 C 292.27923,410.01362 294.58255,410.46728 284.59360,406.34168 C 297.52121,399.13149 312.67837,396.18029 332.91395,390.64801 L 333.11602,390.85008 C 328.59389,412.60089 324.63254,426.24282 317.42235,439.17044 C 316.32720,435.74748 314.76056,428.45435 312.03447,424.14963 C 297.24107,438.05040 296.79067,447.15807 293.67303,461.68043 L 280.44655,444.01986 L 262.08360,430.09100 z "
       id="use11663"
       sodipodi:nodetypes="cccccccccc"
       inkscape:export-filename="/home/ncherel/button-recenter-up.png"
       inkscape:export-xdpi="14.263278"
       inkscape:export-ydpi="14.263278" />
    <path
       style="fill:#b8f6b1;fill-opacity:1.0000000;fill-rule:evenodd;stroke:#093b00;stroke-width:0.60962641px;stroke-linecap:butt;stroke-linejoin:miter;stroke-opacity:0.64497042"
       d="M 417.40163,431.51960 C 408.43511,427.89688 394.78175,426.94140 379.36575,413.66323 C 387.20600,411.44222 384.90268,411.89588 394.89163,407.77028 C 381.96402,400.56009 366.80686,397.60889 346.57128,392.07661 L 346.36921,392.27868 C 350.89134,414.02949 354.85269,427.67142 362.06288,440.59904 C 363.15803,437.17608 364.72467,429.88295 367.45076,425.57823 C 382.24416,439.47900 382.69456,448.58667 385.81220,463.10903 L 399.03868,445.44846 L 417.40163,431.51960 z "
       id="use11665"
       sodipodi:nodetypes="cccccccccc"
       inkscape:export-filename="/home/ncherel/button-recenter-up.png"
       inkscape:export-xdpi="14.263278"
       inkscape:export-ydpi="14.263278" />
    <path
       inkscape:export-ydpi="14.263278"
       inkscape:export-xdpi="14.263278"
       inkscape:export-filename="/home/ncherel/button-recenter-up.png"
       sodipodi:nodetypes="cccccccccc"
       id="path11667"
       d="M 271.67261,338.62503 C 276.90145,340.63082 298.79110,351.66531 306.89707,360.78482 C 302.32502,362.01453 303.66821,361.76335 297.84313,364.04756 C 305.38189,368.03963 314.22080,369.67362 326.02119,372.73668 L 326.13903,372.62480 C 323.50194,360.58205 321.19189,353.02891 316.98724,345.87129 C 316.34862,347.76648 315.43503,351.80446 313.84531,354.18785 C 305.21852,346.49143 291.91208,329.17551 290.09401,321.13493 L 282.38099,330.91304 L 271.67261,338.62503 z "
       style="fill:url(#radialGradient13952);fill-opacity:1.0000000;fill-rule:evenodd;stroke:none;stroke-width:0.49485123px;stroke-linecap:butt;stroke-linejoin:miter;stroke-opacity:0.64497042;display:inline" />
    <path
       inkscape:export-ydpi="14.263278"
       inkscape:export-xdpi="14.263278"
       inkscape:export-filename="/home/ncherel/button-recenter-up.png"
       sodipodi:nodetypes="cccccccccc"
       id="path11669"
       d="M 406.81266,337.14766 C 401.58382,339.15345 379.69417,350.18794 371.58820,359.30745 C 376.16025,360.53716 374.81706,360.28598 380.64214,362.57019 C 373.10338,366.56226 364.26447,368.19625 352.46408,371.25931 L 352.34624,371.14743 C 354.98333,359.10468 357.29338,351.55154 361.49803,344.39392 C 362.13665,346.28911 363.05024,350.32709 364.63996,352.71048 C 373.26675,345.01406 386.57319,327.69814 388.39126,319.65756 L 396.10428,329.43567 L 406.81266,337.14766 z "
       style="fill:url(#radialGradient13950);fill-opacity:1.0000000;fill-rule:evenodd;stroke:none;stroke-width:0.49485123px;stroke-linecap:butt;stroke-linejoin:miter;stroke-opacity:0.64497042;display:inline" />
    <path
       inkscape:export-ydpi="14.263278"
       inkscape:export-xdpi="14.263278"
       inkscape:export-filename="/home/ncherel/button-recenter-up.png"
       sodipodi:nodetypes="cccccccccc"
       id="path11671"
       d="M 271.59308,432.15738 C 276.82192,430.15159 298.71157,419.11710 306.81754,409.99759 C 302.24549,408.76788 303.58868,409.01906 297.76360,406.73485 C 305.30236,402.74278 314.14127,401.10879 325.94166,398.04573 L 326.05950,398.15761 C 323.42241,410.20036 321.11236,417.75350 316.90771,424.91112 C 316.26909,423.01593 315.35550,418.97795 313.76578,416.59456 C 305.13899,424.29098 291.83255,441.60690 290.01448,449.64748 L 282.30146,439.86937 L 271.59308,432.15738 z "
       style="fill:url(#radialGradient13948);fill-opacity:1.0000000;fill-rule:evenodd;stroke:none;stroke-width:0.49485123px;stroke-linecap:butt;stroke-linejoin:miter;stroke-opacity:0.64497042;display:inline" />
    <path
       inkscape:export-ydpi="14.263278"
       inkscape:export-xdpi="14.263278"
       inkscape:export-filename="/home/ncherel/button-recenter-up.png"
       sodipodi:nodetypes="cccccccccc"
       id="path11673"
       d="M 407.48806,433.58595 C 402.25922,431.58016 380.36957,420.54567 372.26360,411.42616 C 376.83565,410.19645 375.49246,410.44763 381.31754,408.16342 C 373.77878,404.17135 364.93987,402.53736 353.13948,399.47430 L 353.02164,399.58618 C 355.65873,411.62893 357.96878,419.18207 362.17343,426.33969 C 362.81205,424.44450 363.72564,420.40652 365.31536,418.02313 C 373.94215,425.71955 387.24859,443.03547 389.06666,451.07605 L 396.77968,441.29794 L 407.48806,433.58595 z "
       style="fill:url(#radialGradient13946);fill-opacity:1.0000000;fill-rule:evenodd;stroke:none;stroke-width:0.49485123px;stroke-linecap:butt;stroke-linejoin:miter;stroke-opacity:0.64497042;display:inline" />
    <rect
       inkscape:export-ydpi="14.263278"
       inkscape:export-xdpi="14.263278"
       inkscape:export-filename="/home/ncherel/button-recenter-down.png"
       style="opacity:1.0000000;fill:url(#linearGradient13896);fill-opacity:1.0000000;fill-rule:evenodd;stroke:#f7f7f7;stroke-width:1.5599999;stroke-linecap:round;stroke-linejoin:round;stroke-miterlimit:4.0000000;stroke-dashoffset:0.0000000;stroke-opacity:1.0000000;display:inline"
       id="rect13874"
       rx="35.000000"
       ry="35.000000"
       x="238.90616"
       y="506.62729"
       width="200.00000"
       height="200.00000" />
    <rect
       inkscape:export-ydpi="14.263278"
       inkscape:export-xdpi="14.263278"
       inkscape:export-filename="/home/ncherel/button-recenter-down.png"
       style="opacity:1.0000000;fill:url(#linearGradient13898);fill-opacity:1.0000000;fill-rule:evenodd;stroke:#035803;stroke-width:1.5599999;stroke-linecap:round;stroke-linejoin:round;stroke-miterlimit:4.0000000;stroke-dasharray:none;stroke-dashoffset:0.0000000;stroke-opacity:1.0000000;display:inline"
       id="rect13876"
       rx="35.000000"
       ry="35.000000"
       x="238.90622"
       y="506.13235"
       width="200.00000"
       height="200.00000" />
    <rect
       inkscape:export-ydpi="14.263278"
       inkscape:export-xdpi="14.263278"
       inkscape:export-filename="/home/ncherel/button-recenter-down.png"
       style="opacity:1.0000000;fill:url(#radialGradient13900);fill-opacity:1.0000000;fill-rule:nonzero;stroke:none;stroke-width:1.5599999;stroke-linecap:round;stroke-linejoin:round;stroke-miterlimit:4.0000000;stroke-dashoffset:0.0000000;stroke-opacity:1.0000000;display:inline"
       id="rect13878"
       x="253.90616"
       y="521.62732"
       rx="30.000000"
       ry="30.000000"
       width="170.00000"
       height="170.00000" />
    <path
       inkscape:export-ydpi="14.263278"
       inkscape:export-xdpi="14.263278"
       inkscape:export-filename="/home/ncherel/button-recenter-down.png"
       sodipodi:nodetypes="cccccccccc"
       id="path13880"
       d="M 259.34899,557.48658 C 268.31551,561.10930 281.96887,562.06478 297.38487,575.34295 C 289.54462,577.56396 291.84794,577.11030 281.85899,581.23590 C 294.78660,588.44609 309.94376,591.39729 330.17934,596.92957 L 330.38141,596.72750 C 325.85928,574.97669 321.89793,561.33476 314.68774,548.40714 C 313.59259,551.83010 312.02595,559.12323 309.29986,563.42795 C 294.50646,549.52718 294.05606,540.41951 290.93842,525.89715 L 277.71194,543.55772 L 259.34899,557.48658 z "
       style="fill:#0c4506;fill-opacity:1.0000000;fill-rule:evenodd;stroke:#093b00;stroke-width:0.60962641px;stroke-linecap:butt;stroke-linejoin:miter;stroke-opacity:0.64497042;display:inline" />
    <path
       style="fill:#0c4506;fill-opacity:1.0000000;fill-rule:evenodd;stroke:#093b00;stroke-width:0.60962641px;stroke-linecap:butt;stroke-linejoin:miter;stroke-opacity:0.64497042;display:inline"
       d="M 413.95260,557.48662 C 404.98608,561.10934 391.33272,562.06482 375.91672,575.34299 C 383.75697,577.56400 381.45365,577.11034 391.44260,581.23594 C 378.51499,588.44613 363.35783,591.39733 343.12225,596.92961 L 342.92018,596.72754 C 347.44231,574.97673 351.40366,561.33480 358.61385,548.40718 C 359.70900,551.83014 361.27564,559.12327 364.00173,563.42799 C 378.79513,549.52722 379.24553,540.41955 382.36317,525.89719 L 395.58965,543.55776 L 413.95260,557.48662 z "
       id="path13882"
       sodipodi:nodetypes="cccccccccc"
       inkscape:export-filename="/home/ncherel/button-recenter-down.png"
       inkscape:export-xdpi="14.263278"
       inkscape:export-ydpi="14.263278" />
    <path
       style="fill:#0c4506;fill-opacity:1.0000000;fill-rule:evenodd;stroke:#093b00;stroke-width:0.60962641px;stroke-linecap:butt;stroke-linejoin:miter;stroke-opacity:0.64497042;display:inline"
       d="M 260.06328,646.76872 C 269.02980,643.14600 282.68316,642.19052 298.09916,628.91235 C 290.25891,626.69134 292.56223,627.14500 282.57328,623.01940 C 295.50089,615.80921 310.65805,612.85801 330.89363,607.32573 L 331.09570,607.52780 C 326.57357,629.27861 322.61222,642.92054 315.40203,655.84816 C 314.30688,652.42520 312.74024,645.13207 310.01415,640.82735 C 295.22075,654.72812 294.77035,663.83579 291.65271,678.35815 L 278.42623,660.69758 L 260.06328,646.76872 z "
       id="path13884"
       sodipodi:nodetypes="cccccccccc"
       inkscape:export-filename="/home/ncherel/button-recenter-down.png"
       inkscape:export-xdpi="14.263278"
       inkscape:export-ydpi="14.263278" />
    <path
       style="fill:#0c4506;fill-opacity:1.0000000;fill-rule:evenodd;stroke:#093b00;stroke-width:0.60962641px;stroke-linecap:butt;stroke-linejoin:miter;stroke-opacity:0.64497042;display:inline"
       d="M 415.38131,648.19732 C 406.41479,644.57460 392.76143,643.61912 377.34543,630.34095 C 385.18568,628.11994 382.88236,628.57360 392.87131,624.44800 C 379.94370,617.23781 364.78654,614.28661 344.55096,608.75433 L 344.34889,608.95640 C 348.87102,630.70721 352.83237,644.34914 360.04256,657.27676 C 361.13771,653.85380 362.70435,646.56067 365.43044,642.25595 C 380.22384,656.15672 380.67424,665.26439 383.79188,679.78675 L 397.01836,662.12618 L 415.38131,648.19732 z "
       id="path13886"
       sodipodi:nodetypes="cccccccccc"
       inkscape:export-filename="/home/ncherel/button-recenter-down.png"
       inkscape:export-xdpi="14.263278"
       inkscape:export-ydpi="14.263278" />
    <path
       inkscape:export-ydpi="14.263278"
       inkscape:export-xdpi="14.263278"
       inkscape:export-filename="/home/ncherel/button-recenter-down.png"
       sodipodi:nodetypes="cccccccccc"
       id="path13888"
       d="M 269.65229,555.30275 C 274.88113,557.30854 296.77078,568.34303 304.87675,577.46254 C 300.30470,578.69225 301.64789,578.44107 295.82281,580.72528 C 303.36157,584.71735 312.20048,586.35134 324.00087,589.41440 L 324.11871,589.30252 C 321.48162,577.25977 319.17157,569.70663 314.96692,562.54901 C 314.32830,564.44420 313.41471,568.48218 311.82499,570.86557 C 303.19820,563.16915 289.89176,545.85323 288.07369,537.81265 L 280.36067,547.59076 L 269.65229,555.30275 z "
       style="fill:url(#radialGradient13902);fill-opacity:1.0000000;fill-rule:evenodd;stroke:none;stroke-width:0.49485123px;stroke-linecap:butt;stroke-linejoin:miter;stroke-opacity:0.64497042;display:inline" />
    <path
       inkscape:export-ydpi="14.263278"
       inkscape:export-xdpi="14.263278"
       inkscape:export-filename="/home/ncherel/button-recenter-down.png"
       sodipodi:nodetypes="cccccccccc"
       id="path13890"
       d="M 404.79234,553.82538 C 399.56350,555.83117 377.67385,566.86566 369.56788,575.98517 C 374.13993,577.21488 372.79674,576.96370 378.62182,579.24791 C 371.08306,583.23998 362.24415,584.87397 350.44376,587.93703 L 350.32592,587.82515 C 352.96301,575.78240 355.27306,568.22926 359.47771,561.07164 C 360.11633,562.96683 361.02992,567.00481 362.61964,569.38820 C 371.24643,561.69178 384.55287,544.37586 386.37094,536.33528 L 394.08396,546.11339 L 404.79234,553.82538 z "
       style="fill:url(#radialGradient13904);fill-opacity:1.0000000;fill-rule:evenodd;stroke:none;stroke-width:0.49485123px;stroke-linecap:butt;stroke-linejoin:miter;stroke-opacity:0.64497042;display:inline" />
    <path
       inkscape:export-ydpi="14.263278"
       inkscape:export-xdpi="14.263278"
       inkscape:export-filename="/home/ncherel/button-recenter-down.png"
       sodipodi:nodetypes="cccccccccc"
       id="path13892"
       d="M 269.57276,648.83510 C 274.80160,646.82931 296.69125,635.79482 304.79722,626.67531 C 300.22517,625.44560 301.56836,625.69678 295.74328,623.41257 C 303.28204,619.42050 312.12095,617.78651 323.92134,614.72345 L 324.03918,614.83533 C 321.40209,626.87808 319.09204,634.43122 314.88739,641.58884 C 314.24877,639.69365 313.33518,635.65567 311.74546,633.27228 C 303.11867,640.96870 289.81223,658.28462 287.99416,666.32520 L 280.28114,656.54709 L 269.57276,648.83510 z "
       style="fill:url(#radialGradient13906);fill-opacity:1.0000000;fill-rule:evenodd;stroke:none;stroke-width:0.49485123px;stroke-linecap:butt;stroke-linejoin:miter;stroke-opacity:0.64497042;display:inline" />
    <path
       inkscape:export-ydpi="14.263278"
       inkscape:export-xdpi="14.263278"
       inkscape:export-filename="/home/ncherel/button-recenter-down.png"
       sodipodi:nodetypes="cccccccccc"
       id="path13894"
       d="M 405.46774,650.26367 C 400.23890,648.25788 378.34925,637.22339 370.24328,628.10388 C 374.81533,626.87417 373.47214,627.12535 379.29722,624.84114 C 371.75846,620.84907 362.91955,619.21508 351.11916,616.15202 L 351.00132,616.26390 C 353.63841,628.30665 355.94846,635.85979 360.15311,643.01741 C 360.79173,641.12222 361.70532,637.08424 363.29504,634.70085 C 371.92183,642.39727 385.22827,659.71319 387.04634,667.75377 L 394.75936,657.97566 L 405.46774,650.26367 z "
       style="fill:url(#radialGradient13908);fill-opacity:1.0000000;fill-rule:evenodd;stroke:none;stroke-width:0.49485123px;stroke-linecap:butt;stroke-linejoin:miter;stroke-opacity:0.64497042;display:inline" />
    <rect
       inkscape:export-ydpi="14.263278"
       inkscape:export-xdpi="14.263278"
       inkscape:export-filename="/home/ncherel/button-recenter-disabled.png"
       style="opacity:0.23255814;fill:url(#linearGradient13982);fill-opacity:1.0000000;fill-rule:evenodd;stroke:#f7f7f7;stroke-width:1.5599999;stroke-linecap:round;stroke-linejoin:round;stroke-miterlimit:4.0000000;stroke-dashoffset:0.0000000;stroke-opacity:1.0000000;display:inline"
       id="rect13960"
       rx="35.000000"
       ry="35.000000"
       x="239.41122"
       y="738.45734"
       width="200.00000"
       height="200.00000" />
    <rect
       inkscape:export-ydpi="14.263278"
       inkscape:export-xdpi="14.263278"
       inkscape:export-filename="/home/ncherel/button-recenter-disabled.png"
       style="opacity:0.23255814;fill:url(#linearGradient13984);fill-opacity:1.0000000;fill-rule:evenodd;stroke:#035803;stroke-width:1.5599999;stroke-linecap:round;stroke-linejoin:round;stroke-miterlimit:4.0000000;stroke-dasharray:none;stroke-dashoffset:0.0000000;stroke-opacity:1.0000000;display:inline"
       id="rect13962"
       rx="35.000000"
       ry="35.000000"
       x="239.41129"
       y="737.96234"
       width="200.00000"
       height="200.00000" />
    <rect
       inkscape:export-ydpi="14.263278"
       inkscape:export-xdpi="14.263278"
       inkscape:export-filename="/home/ncherel/button-recenter-disabled.png"
       style="opacity:0.23255814;fill:url(#radialGradient13986);fill-opacity:1.0000000;fill-rule:nonzero;stroke:none;stroke-width:1.5599999;stroke-linecap:round;stroke-linejoin:round;stroke-miterlimit:4.0000000;stroke-dashoffset:0.0000000;stroke-opacity:1.0000000;display:inline"
       id="rect13964"
       x="254.41122"
       y="753.45734"
       rx="30.000000"
       ry="30.000000"
       width="170.00000"
       height="170.00000" />
    <path
       inkscape:export-ydpi="14.263278"
       inkscape:export-xdpi="14.263278"
       inkscape:export-filename="/home/ncherel/button-recenter-disabled.png"
       sodipodi:nodetypes="cccccccccc"
       id="path13966"
       d="M 259.85409,789.31660 C 268.82061,792.93932 282.47397,793.89480 297.88997,807.17297 C 290.04972,809.39398 292.35304,808.94032 282.36409,813.06592 C 295.29170,820.27611 310.44886,823.22731 330.68444,828.75959 L 330.88651,828.55752 C 326.36438,806.80671 322.40303,793.16478 315.19284,780.23716 C 314.09769,783.66012 312.53105,790.95325 309.80496,795.25797 C 295.01156,781.35720 294.56116,772.24953 291.44352,757.72717 L 278.21704,775.38774 L 259.85409,789.31660 z "
       style="fill:#30812c;fill-opacity:1.0000000;fill-rule:evenodd;stroke:#093b00;stroke-width:0.60962641px;stroke-linecap:butt;stroke-linejoin:miter;stroke-opacity:0.64497042;display:inline;opacity:0.23255814" />
    <use
       inkscape:export-ydpi="14.263278"
       inkscape:export-xdpi="14.263278"
       inkscape:export-filename="/home/ncherel/button-recenter-disabled.png"
       height="1052.3622"
       width="744.09448"
       transform="matrix(-1.000000,0.000000,0.000000,1.000000,682.3930,670.7413)"
       id="use13968"
       xlink:href="#path6805"
       y="0.0000000"
       x="0.0000000"
       style="fill-opacity:1.0000000;display:inline;opacity:0.23255814" />
    <use
       style="display:inline;opacity:0.23255814"
       inkscape:export-ydpi="14.263278"
       inkscape:export-xdpi="14.263278"
       inkscape:export-filename="/home/ncherel/button-recenter-disabled.png"
       height="1052.3622"
       width="744.09448"
       transform="matrix(1.000000,0.000000,0.000000,-1.000000,-7.366973,997.1740)"
       id="use13970"
       xlink:href="#path6805"
       y="0.0000000"
       x="0.0000000" />
    <use
       style="display:inline;opacity:0.23255814"
       inkscape:export-ydpi="14.263278"
       inkscape:export-xdpi="14.263278"
       inkscape:export-filename="/home/ncherel/button-recenter-disabled.png"
       height="1052.3622"
       width="744.09448"
       transform="matrix(-1.000000,0.000000,0.000000,1.000000,684.5359,672.1699)"
       id="use13972"
       xlink:href="#use7587"
       y="0.0000000"
       x="0.0000000" />
    <path
       inkscape:export-ydpi="14.263278"
       inkscape:export-xdpi="14.263278"
       inkscape:export-filename="/home/ncherel/button-recenter-disabled.png"
       sodipodi:nodetypes="cccccccccc"
       id="path13974"
       d="M 270.15739,787.13277 C 275.38623,789.13856 297.27588,800.17305 305.38185,809.29256 C 300.80980,810.52227 302.15299,810.27109 296.32791,812.55530 C 303.86667,816.54737 312.70558,818.18136 324.50597,821.24442 L 324.62381,821.13254 C 321.98672,809.08979 319.67667,801.53665 315.47202,794.37903 C 314.83340,796.27422 313.91981,800.31220 312.33009,802.69559 C 303.70330,794.99917 290.39686,777.68325 288.57879,769.64267 L 280.86577,779.42078 L 270.15739,787.13277 z "
       style="fill:url(#radialGradient13988);fill-opacity:1.0000000;fill-rule:evenodd;stroke:none;stroke-width:0.49485123px;stroke-linecap:butt;stroke-linejoin:miter;stroke-opacity:0.64497042;display:inline;opacity:0.23255814" />
    <path
       inkscape:export-ydpi="14.263278"
       inkscape:export-xdpi="14.263278"
       inkscape:export-filename="/home/ncherel/button-recenter-disabled.png"
       sodipodi:nodetypes="cccccccccc"
       id="path13976"
       d="M 405.29744,785.65540 C 400.06860,787.66119 378.17895,798.69568 370.07298,807.81519 C 374.64503,809.04490 373.30184,808.79372 379.12692,811.07793 C 371.58816,815.07000 362.74925,816.70399 350.94886,819.76705 L 350.83102,819.65517 C 353.46811,807.61242 355.77816,800.05928 359.98281,792.90166 C 360.62143,794.79685 361.53502,798.83483 363.12474,801.21822 C 371.75153,793.52180 385.05797,776.20588 386.87604,768.16530 L 394.58906,777.94341 L 405.29744,785.65540 z "
       style="fill:url(#radialGradient13990);fill-opacity:1.0000000;fill-rule:evenodd;stroke:none;stroke-width:0.49485123px;stroke-linecap:butt;stroke-linejoin:miter;stroke-opacity:0.64497042;display:inline;opacity:0.23255814" />
    <path
       inkscape:export-ydpi="14.263278"
       inkscape:export-xdpi="14.263278"
       inkscape:export-filename="/home/ncherel/button-recenter-disabled.png"
       sodipodi:nodetypes="cccccccccc"
       id="path13978"
       d="M 270.07786,880.66512 C 275.30670,878.65933 297.19635,867.62484 305.30232,858.50533 C 300.73027,857.27562 302.07346,857.52680 296.24838,855.24259 C 303.78714,851.25052 312.62605,849.61653 324.42644,846.55347 L 324.54428,846.66535 C 321.90719,858.70810 319.59714,866.26124 315.39249,873.41886 C 314.75387,871.52367 313.84028,867.48569 312.25056,865.10230 C 303.62377,872.79872 290.31733,890.11464 288.49926,898.15522 L 280.78624,888.37711 L 270.07786,880.66512 z "
       style="fill:url(#radialGradient13992);fill-opacity:1.0000000;fill-rule:evenodd;stroke:none;stroke-width:0.49485123px;stroke-linecap:butt;stroke-linejoin:miter;stroke-opacity:0.64497042;display:inline;opacity:0.23255814" />
    <path
       inkscape:export-ydpi="14.263278"
       inkscape:export-xdpi="14.263278"
       inkscape:export-filename="/home/ncherel/button-recenter-disabled.png"
       sodipodi:nodetypes="cccccccccc"
       id="path13980"
       d="M 405.97284,882.09369 C 400.74400,880.08790 378.85435,869.05341 370.74838,859.93390 C 375.32043,858.70419 373.97724,858.95537 379.80232,856.67116 C 372.26356,852.67909 363.42465,851.04510 351.62426,847.98204 L 351.50642,848.09392 C 354.14351,860.13667 356.45356,867.68981 360.65821,874.84743 C 361.29683,872.95224 362.21042,868.91426 363.80014,866.53087 C 372.42693,874.22729 385.73337,891.54321 387.55144,899.58379 L 395.26446,889.80568 L 405.97284,882.09369 z "
       style="fill:url(#radialGradient13994);fill-opacity:1.0000000;fill-rule:evenodd;stroke:none;stroke-width:0.49485123px;stroke-linecap:butt;stroke-linejoin:miter;stroke-opacity:0.64497042;display:inline;opacity:0.23255814" />
  </g>
</svg>
