<?xml version="1.0" encoding="UTF-8" standalone="no"?>
<!-- Created with Inkscape (http://www.inkscape.org/) -->
<svg
   xmlns:dc="http://purl.org/dc/elements/1.1/"
   xmlns:cc="http://web.resource.org/cc/"
   xmlns:rdf="http://www.w3.org/1999/02/22-rdf-syntax-ns#"
   xmlns:svg="http://www.w3.org/2000/svg"
   xmlns="http://www.w3.org/2000/svg"
   xmlns:xlink="http://www.w3.org/1999/xlink"
   xmlns:sodipodi="http://inkscape.sourceforge.net/DTD/sodipodi-0.dtd"
   xmlns:inkscape="http://www.inkscape.org/namespaces/inkscape"
   width="841.88975pt"
   height="595.27559pt"
   id="svg2"
   sodipodi:version="0.32"
   inkscape:version="0.42"
   sodipodi:docbase="/home/ncherel"
   sodipodi:docname="flag-transparent.svg">
  <defs
     id="defs3">
    <linearGradient
       id="linearGradient12790">
      <stop
         id="stop12792"
         offset="0.0000000"
         style="stop-color:#ffffff;stop-opacity:0.69387758;" />
      <stop
         id="stop13558"
         offset="0.36729339"
         style="stop-color:#87be95;stop-opacity:0.0000000;" />
      <stop
         id="stop13556"
         offset="0.62433046"
         style="stop-color:#2a7f2a;stop-opacity:0.43877551;" />
      <stop
         id="stop12794"
         offset="1.0000000"
         style="stop-color:#ffffff;stop-opacity:0.0000000;" />
    </linearGradient>
    <linearGradient
       id="linearGradient5147">
      <stop
         id="stop5149"
         offset="0.0000000"
         style="stop-color:#a1b9d5;stop-opacity:1.0000000;" />
      <stop
         id="stop5151"
         offset="1.0000000"
         style="stop-color:#ffffff;stop-opacity:1.0000000;" />
    </linearGradient>
    <linearGradient
       id="linearGradient4401">
      <stop
         style="stop-color:#b5b5b5;stop-opacity:1.0000000;"
         offset="0.0000000"
         id="stop4403" />
      <stop
         style="stop-color:#000000;stop-opacity:0;"
         offset="1"
         id="stop4405" />
    </linearGradient>
    <linearGradient
       id="linearGradient2083">
      <stop
         style="stop-color:#aafdab;stop-opacity:1.0000000;"
         offset="0.0000000"
         id="stop2085" />
      <stop
         style="stop-color:#9ceaa3;stop-opacity:1.0000000;"
         offset="0.093750000"
         id="stop4356" />
      <stop
         style="stop-color:#62a466;stop-opacity:1.0000000;"
         offset="1.0000000"
         id="stop2087" />
    </linearGradient>
    <linearGradient
       spreadMethod="pad"
       gradientUnits="userSpaceOnUse"
       y2="148.25395"
       x2="266.00003"
       y1="178.02689"
       x1="74.729492"
       gradientTransform="matrix(1.347588,0.000000,0.000000,0.687739,102.0485,27.70759)"
       id="linearGradient12796"
       xlink:href="#linearGradient12790"
       inkscape:collect="always" />
  </defs>
  <sodipodi:namedview
     id="base"
     pagecolor="#ffffff"
     bordercolor="#666666"
     borderopacity="1.0"
     inkscape:pageopacity="0.0"
     inkscape:pageshadow="2"
     inkscape:zoom="1.4000000"
     inkscape:cx="402.60663"
     inkscape:cy="416.12209"
     inkscape:document-units="px"
     inkscape:current-layer="layer1"
     inkscape:window-width="1440"
     inkscape:window-height="825"
     inkscape:window-x="0"
     inkscape:window-y="25" />
  <metadata
     id="metadata4">
    <rdf:RDF>
      <cc:Work
         rdf:about="">
        <dc:format>image/svg+xml</dc:format>
        <dc:type
           rdf:resource="http://purl.org/dc/dcmitype/StillImage" />
      </cc:Work>
    </rdf:RDF>
  </metadata>
  <g
     inkscape:label="Layer 1"
     inkscape:groupmode="layer"
     id="layer1">
    <path
       inkscape:export-ydpi="24.429890"
       inkscape:export-xdpi="24.429890"
       inkscape:export-filename="/home/ncherel/flag-transparent.png"
       transform="matrix(0.710799,0.000000,0.000000,0.710799,106.5616,25.88128)"
       d="M 288.90363 343.23511 A 161.62440 161.62440 0 1 1  -34.345184,343.23511 A 161.62440 161.62440 0 1 1  288.90363 343.23511 z"
       sodipodi:ry="161.62440"
       sodipodi:rx="161.62440"
       sodipodi:cy="343.23511"
       sodipodi:cx="127.27922"
       id="path14331"
       style="stroke-opacity:1.0000000;stroke-dashoffset:0.0000000;stroke-miterlimit:4.0000000;stroke-linejoin:bevel;stroke-width:11.268533;stroke:#000000;fill-rule:evenodd;fill-opacity:0.21893491;fill:#0aff00;opacity:0.25000000"
       sodipodi:type="arc" />
    <path
       inkscape:export-ydpi="24.429890"
       inkscape:export-xdpi="24.429890"
       inkscape:export-filename="/home/ncherel/flag-transparent.png"
       d="M 286.88332 331.11325 A 76.771591 76.771591 0 1 1  133.34013,331.11325 A 76.771591 76.771591 0 1 1  286.88332 331.11325 z"
       sodipodi:ry="76.771591"
       sodipodi:rx="76.771591"
       sodipodi:cy="331.11325"
       sodipodi:cx="210.11172"
       id="path15849"
       style="fill:none;fill-opacity:1.0000000;fill-rule:evenodd;stroke:#000000;stroke-width:10.000000;stroke-linejoin:bevel;stroke-miterlimit:4.0000000;stroke-dashoffset:0.0000000;stroke-opacity:1.0000000;opacity:0.25000000"
       sodipodi:type="arc"
       transform="matrix(0.800966,0.000000,0.000000,0.800966,25.26257,2.441249)" />
    <path
       inkscape:export-ydpi="24.429890"
       inkscape:export-xdpi="24.429890"
       inkscape:export-filename="/home/ncherel/flag-transparent.png"
       style="stroke-opacity:1.0000000;stroke-miterlimit:4.0000000;stroke-linejoin:miter;stroke-linecap:butt;stroke-width:4.6763821;stroke:#000000;fill-rule:evenodd;fill-opacity:1.0;fill:none;opacity:0.29069767"
       d="M 190.13879,269.25270 L 171.25935,149.34707 C 179.30085,169.01863 210.19949,159.76162 209.31242,147.29032 L 201.19548,269.25270 C 198.54482,270.89674 193.30688,271.90846 190.13879,269.25270 z "
       id="path2881"
       sodipodi:nodetypes="ccccc" />
    <path
       inkscape:export-ydpi="24.429890"
       inkscape:export-xdpi="24.429890"
       inkscape:export-filename="/home/ncherel/flag-transparent.png"
       sodipodi:type="arc"
       style="fill:none;fill-opacity:1.0000000;stroke:#000000;stroke-width:7.9940867;stroke-miterlimit:4.0000000;stroke-opacity:1.0000000;opacity:0.26744186"
       id="path1321"
       sodipodi:cx="167.14285"
       sodipodi:cy="498.07648"
       sodipodi:rx="18.571428"
       sodipodi:ry="25.714285"
       d="M 185.71428 498.07648 A 18.571428 25.714285 0 1 1  148.57142,498.07648 A 18.571428 25.714285 0 1 1  185.71428 498.07648 z"
       transform="matrix(1.024506,0.000000,0.000000,0.500774,19.04708,-102.2229)" />
    <path
       inkscape:export-ydpi="24.429890"
       inkscape:export-xdpi="24.429890"
       inkscape:export-filename="/home/ncherel/flag-transparent.png"
       sodipodi:nodetypes="ccsccsc"
       id="path5930"
       d="M 374.44597,369.05698 L 536.76051,463.10047 C 729.32667,541.05252 784.82969,558.24167 804.93337,544.97926 C 831.53123,527.43276 868.05182,524.40779 1021.2512,597.75395 C 958.10734,565.10744 862.86933,519.46900 836.08968,493.12067 C 741.54161,457.45391 683.01979,450.31358 662.67611,466.53731 C 634.64615,488.89063 374.93775,369.05698 374.44597,369.05698 z "
       style="fill:#000000;fill-opacity:0.25098041;fill-rule:evenodd;stroke:none;stroke-width:1.3043640px;stroke-linecap:butt;stroke-linejoin:bevel;stroke-opacity:0.25098041" />
    <path
       inkscape:export-ydpi="24.429890"
       inkscape:export-xdpi="24.429890"
       inkscape:export-filename="/home/ncherel/flag-transparent.png"
       style="fill:#000000;fill-opacity:0.25098041;fill-rule:evenodd;stroke:none;stroke-width:0.97048110px;stroke-linecap:butt;stroke-linejoin:miter;stroke-opacity:0.25098041"
       d="M 187.55591,269.81748 L 518.14222,484.98125 C 466.81760,453.67155 524.06128,456.00588 570.83945,482.79552 L 203.56867,270.53176 C 202.51385,270.49900 198.03913,276.93003 187.55591,269.81748 z "
       id="path5932"
       sodipodi:nodetypes="ccccc" />
    <path
       inkscape:export-ydpi="24.429890"
       inkscape:export-xdpi="24.429890"
       inkscape:export-filename="/home/ncherel/flag-transparent.png"
       sodipodi:type="arc"
       style="fill:#000000;fill-opacity:0.25098041;stroke:none;stroke-opacity:0.25098041"
       id="path5934"
       sodipodi:cx="167.14285"
       sodipodi:cy="498.07648"
       sodipodi:rx="27.291851"
       sodipodi:ry="24.705021"
       d="M 194.43470 498.07648 A 27.291851 24.705021 0 1 1  139.85100,498.07648 A 27.291851 24.705021 0 1 1  194.43470 498.07648 z"
       transform="matrix(1.024506,0.000000,-1.447860,-0.852000,1093.365,907.4279)" />
    <path
       inkscape:export-ydpi="24.429890"
       inkscape:export-xdpi="24.429890"
       inkscape:export-filename="/home/ncherel/flag-transparent.png"
       sodipodi:nodetypes="ccsccsc"
       id="path2838"
       d="M 204.93108,212.69749 L 208.16698,158.86736 C 268.26390,113.05001 296.50154,102.76924 339.14299,110.56440 C 395.55882,120.87759 437.21993,122.65554 465.77726,79.545369 C 458.11181,98.733799 440.43024,125.55839 458.42617,141.04496 C 424.48901,162.00858 378.10126,166.20540 330.18746,156.66969 C 264.17099,143.53123 204.93108,212.69749 204.93108,212.69749 z "
       style="fill:url(#linearGradient12796);fill-opacity:1.0000000;fill-rule:evenodd;stroke:#000000;stroke-width:4.6997061;stroke-linecap:butt;stroke-linejoin:miter;stroke-miterlimit:4.0000000;stroke-opacity:1.0000000;opacity:0.18604651" />
  </g>
</svg>
